\relax 
\@writefile{toc}{\contentsline {section}{\numberline {1}\bfseries   Discrete simulation}{1}}
\newlabel{eq-suvat-1}{{1}{1}}
\newlabel{eq-suvat-2}{{2}{1}}
\newlabel{eq-suvat-3}{{3}{1}}
\newlabel{eq-suvat-4}{{4}{1}}
\@writefile{loa}{\contentsline {algorithm}{\numberline {1}{\ignorespaces Simulation of $n$ vehicles and $K$ time-steps of length $T$.\relax }}{1}}
\providecommand*\caption@xref[2]{\@setref\relax\@undefined{#1}}
\newlabel{alg-sim}{{1}{1}}
\@writefile{toc}{\contentsline {section}{\numberline {2}\bfseries   Deriving controls $(f_x, f_y)$ at the current state}{1}}
\newlabel{sec:controls}{{2}{1}}
\newlabel{eq-fx}{{5}{1}}
\newlabel{eq-fy}{{6}{1}}
\newlabel{fig-fts-x}{{1a}{2}}
\newlabel{sub@fig-fts-x}{{a}{2}}
\newlabel{fig-fts-y}{{1b}{2}}
\newlabel{sub@fig-fts-y}{{b}{2}}
\@writefile{lof}{\contentsline {figure}{\numberline {1}{\ignorespaces Target-speed force components.\relax }}{2}}
\@writefile{toc}{\contentsline {subsection}{\numberline {2.1}\slshape   Target-speed force $\mathaccentV {vec}17E{f^{\texttt  {ts}}} = f^{\texttt  {ts}}_x + j f^{\texttt  {ts}}_y$}{2}}
\@writefile{toc}{\contentsline {subsubsection}{\numberline {2.1.1}\rmfamily   Horizontal componet}{2}}
\@writefile{toc}{\contentsline {subsubsection}{\numberline {2.1.2}\rmfamily   Vertical component}{2}}
\@writefile{toc}{\contentsline {subsection}{\numberline {2.2}\slshape   Collision-avoidance and nudging forces}{2}}
\@writefile{toc}{\contentsline {subsubsection}{\numberline {2.2.1}\rmfamily   The direction of collision-avoidance and nudge-like forces}{2}}
\@writefile{lof}{\contentsline {figure}{\numberline {2}{\ignorespaces Collision-avoidance and nudge-like forces.\relax }}{3}}
\newlabel{fig-fca}{{2}{3}}
\@writefile{toc}{\contentsline {subsubsection}{\numberline {2.2.2}\rmfamily   The magnitude of collision-avoidance and nudge-like forces}{3}}
\newlabel{sec-fca-mag}{{2.2.2}{3}}
\@writefile{lof}{\contentsline {figure}{\numberline {3}{\ignorespaces Aura $g_{ij}$ assuming $j$ is positioned at $(0,0)$ remaining still and with vehicle dimensions $l_j=5, l_i=4, w_j = w_i = 2$.\relax }}{4}}
\newlabel{gij-vx-0-vy-0}{{3}{4}}
\@writefile{lof}{\contentsline {figure}{\numberline {4}{\ignorespaces Aura $g_{ij}$ as in Figure\nobreakspace  {}3\hbox {} but with non-zero horizontal and/or vertical velocities for $j$, and with $\mathcal  {T}_x = \mathcal  {T}_y = 0.5$.\relax }}{4}}
\newlabel{gij-non-still}{{4}{4}}
\bibstyle{plain}
\bibdata{p}
\@writefile{toc}{\contentsline {section}{\numberline {3}\bfseries   Road boundaries and other hard constraints}{5}}
\newlabel{sec:effective}{{3}{5}}
\newlabel{lemm:ubound}{{2}{5}}
\@writefile{toc}{\contentsline {section}{\numberline {4}\bfseries   Determining component force coefficients}{5}}
